module gitlab.com/king011/king-go

go 1.12

require (
	go.uber.org/atomic v1.3.2 // indirect
	go.uber.org/multierr v1.1.0 // indirect
	go.uber.org/zap v1.9.1
	gopkg.in/natefinch/lumberjack.v2 v2.0.0
)
